{
  "project_info": {
    "project_number": "700891006200",
    "project_id": "favmovies-midterm",
    "storage_bucket": "favmovies-midterm.appspot.com"
  },
  "client": [
    {
      "client_info": {
        "mobilesdk_app_id": "1:700891006200:android:04871d6c3243b280b5a70d",
        "android_client_info": {
          "package_name": "com.example.favmovies"
        }
      },
      "oauth_client": [
        {
          "client_id": "700891006200-ebqr20cs6u0clgt15ml1j3q9ovk65ffd.apps.googleusercontent.com",
          "client_type": 3
        }
      ],
      "api_key": [
        {
          "current_key": "AIzaSyA1W1RmV8h4ph3tmivrH1YnP3kloc6y7Ec"
        }
      ],
      "services": {
        "appinvite_service": {
          "other_platform_oauth_client": [
            {
              "client_id": "700891006200-ebqr20cs6u0clgt15ml1j3q9ovk65ffd.apps.googleusercontent.com",
              "client_type": 3
            }
          ]
        }
      }
    }
  ],
  "configuration_version": "1"
}